{
    "$schema": "https://turborepo.org/schema.json",
    "pipeline": {
        "build": {
            "dependsOn": ["^build"],
            "outputs": ["dist/**", ".next/**"]
        },
        "lint": {
            "outputs": []
        },
        "test": {
            "outputs": []
        },
        "test:update": {
            "outputs": []
        },
        "typecheck": {
            "outputs": []
        },
        "integrate": {
            "dependsOn": ["^lint", "^test", "^typecheck"]
        },
        "noop": {
            "outputs": []
        },
        "start": {
            "dependsOn": ["^build"]
        },
        "gql": {
            "cache": false
        },
        "dev": {
            "cache": false
        }
    },
    "baseBranch": "origin/master",
    "globalDependencies": ["tsconfig.json", ".env.*"]
}
